{"data":[{"hash":"0x24a8fad72e4dcd148772d3cfb5ac6369cde37a778121b7f38d6373b97c7f342d","height":"0x25","epoch":27560528,"timestamp":1763873855999,"difficulty":"342","transactionCount":0,"state":"Main","coinbase":"Lz7wzAC21AiZunKnncVZHNLUvY6zXwwFx"},{"hash":"0x0994cfa499ea746eb6f27152fdfded963e1d6a2b8c2bd04344e2a806c31a6db1","height":"0x24","epoch":27560527,"timestamp":1763873791999,"difficulty":"336","transactionCount":0,"state":"Main","coinbase":"Lz7wzAC21AiZunKnncVZHNLUvY6zXwwFx"},{"hash":"0xb466f303352fc61d3fd23279455d25e53a98db2ae619dad58c16053b06f210b8","height":"0x23","epoch":27560526,"timestamp":1763873727999,"difficulty":"310","transactionCount":0,"state":"Main","coinbase":"Lz7wzAC21AiZunKnncVZHNLUvY6zXwwFx"},{"hash":"0xf962cedbd206547381b56122a7d61275282333dddec36e166e58325b1a03a743","height":"0x22","epoch":27560525,"timestamp":1763873663999,"difficulty":"309","transactionCount":0,"state":"Main","coinbase":"Lz7wzAC21AiZunKnncVZHNLUvY6zXwwFx"},{"hash":"0xc501bb1f4be075b0bc98592cc9713cedad78f1464c71b3ea9b23636f078b123f","height":"0x21","epoch":27560524,"timestamp":1763873599999,"difficulty":"308","transactionCount":0,"state":"Main","coinbase":"Lz7wzAC21AiZunKnncVZHNLUvY6zXwwFx"},{"hash":"0x053e4c087f653dc5a238b57f97160943b33473260291c8bc3a25de4877d22d0e","height":"0x20","epoch":27560523,"timestamp":1763873535999,"difficulty":"307","transactionCount":0,"state":"Main","coinbase":"Lz7wzAC21AiZunKnncVZHNLUvY6zXwwFx"},{"hash":"0x3d07dacb95e865a5790d1a3568c2695d3dc6775ab7afea6234933409eef443be","height":"0x1f","epoch":27560522,"timestamp":1763873471999,"difficulty":"259","transactionCount":0,"state":"Main","coinbase":"Lz7wzAC21AiZunKnncVZHNLUvY6zXwwFx"},{"hash":"0x5999fb446f2ddd0d300eef8b8554a11fd4c61ae727c2b4340eaedaef59be455f","height":"0x1e","epoch":27560521,"timestamp":1763873407999,"difficulty":"255","transactionCount":0,"state":"Main","coinbase":"Lz7wzAC21AiZunKnncVZHNLUvY6zXwwFx"},{"hash":"0xd5693dbc9d50e22574a838becef62cdb2d7f87ad731c41eecaa8e9759e89be8e","height":"0x1d","epoch":27560520,"timestamp":1763873343999,"difficulty":"253","transactionCount":0,"state":"Main","coinbase":"Lz7wzAC21AiZunKnncVZHNLUvY6zXwwFx"},{"hash":"0xaa54a1e301ac86925aae06ed508aaa94651d6690086e9a9e939aef10a33aa19e","height":"0x1c","epoch":27560519,"timestamp":1763873279999,"difficulty":"252","transactionCount":0,"state":"Main","coinbase":"Lz7wzAC21AiZunKnncVZHNLUvY6zXwwFx"},{"hash":"0xb9034f019bd1bb7e5964ce6556121c3bf514b19ed308640f32d38278ae5315d7","height":"0x1b","epoch":27560518,"timestamp":1763873215999,"difficulty":"251","transactionCount":0,"state":"Main","coinbase":"Lz7wzAC21AiZunKnncVZHNLUvY6zXwwFx"},{"hash":"0xf283e40e71b68e6daf5d021a44be5a28eea7032498fb274f919b26bfbd44f7c6","height":"0x1a","epoch":27560517,"timestamp":1763873151999,"difficulty":"250","transactionCount":0,"state":"Main","coinbase":"Lz7wzAC21AiZunKnncVZHNLUvY6zXwwFx"},{"hash":"0x7f31ceb64a094d7d596ce43279a34c7ab9073d509f24d8b4a64336d33cacc668","height":"0x19","epoch":27560516,"timestamp":1763873087999,"difficulty":"249","transactionCount":0,"state":"Main","coinbase":"Lz7wzAC21AiZunKnncVZHNLUvY6zXwwFx"},{"hash":"0x03a07ace4da0e41ebda6e01ca80cacec5fa3869e4ca765e9156d3b2d1269ba55","height":"0x18","epoch":27560515,"timestamp":1763873023999,"difficulty":"247","transactionCount":0,"state":"Main","coinbase":"Lz7wzAC21AiZunKnncVZHNLUvY6zXwwFx"},{"hash":"0x1c036d606b32358b9dabddc9c0e1a1f14fe2d060997a31a097b7ef0552d81f7a","height":"0x17","epoch":27560514,"timestamp":1763872959999,"difficulty":"177","transactionCount":0,"state":"Main","coinbase":"Lz7wzAC21AiZunKnncVZHNLUvY6zXwwFx"},{"hash":"0x4b95be2e8997b57ebcd9f7ea6c62afd528409b0f1473368bbcf85c0d96b46644","height":"0x16","epoch":27560513,"timestamp":1763872895999,"difficulty":"168","transactionCount":0,"state":"Main","coinbase":"Lz7wzAC21AiZunKnncVZHNLUvY6zXwwFx"},{"hash":"0x097379e164f5579e08febceec8f8634a15b5334f001223618fcf72d053cdf7c6","height":"0x15","epoch":27560512,"timestamp":1763872831999,"difficulty":"165","transactionCount":0,"state":"Main","coinbase":"Lz7wzAC21AiZunKnncVZHNLUvY6zXwwFx"},{"hash":"0x63b9aa740056ca77437d9870d6d37a0759c52e58dd5474e6ce1070c0d1714633","height":"0x14","epoch":27560511,"timestamp":1763872767999,"difficulty":"138","transactionCount":0,"state":"Main","coinbase":"Lz7wzAC21AiZunKnncVZHNLUvY6zXwwFx"},{"hash":"0x9b33e246236aebb5d17161c7305ecefaa29996a0a87fa9291ea74c5a65b4094f","height":"0x13","epoch":27560510,"timestamp":1763872703999,"difficulty":"136","transactionCount":0,"state":"Main","coinbase":"Lz7wzAC21AiZunKnncVZHNLUvY6zXwwFx"},{"hash":"0xfa490ec60045be67d52a43f84f07eaa3bdcbf037bc339b9dfb09b1ad0d3e5613","height":"0x12","epoch":27560509,"timestamp":1763872639999,"difficulty":"135","transactionCount":0,"state":"Main","coinbase":"Lz7wzAC21AiZunKnncVZHNLUvY6zXwwFx"}],"pagination":{"page":1,"size":20,"total":37,"totalPages":2}}